MyLabJournal - Data Acquisition
…
# use that URL to scrape the S&P 500 table using rvest
library(rvest)
sp_500 <- url %>%
  # read the HTML from the webpage
  read_html() %>%
  # Get the nodes with the id
  html_nodes(css = "#constituents") %>%
  # html_nodes(xpath = "//*[@id='constituents']"") %>% 
  # Extract the table and turn the list into a tibble
  html_table() %>% 
  .[[1]] %>% 
  as_tibble()
print(sp_500)

#> # A tibble: 503 x 8
#>    Symbol Security      `GICS Sector` `GICS Sub-Industry` Headquarters Locatio~1
#>    <chr>  <chr>         <chr>         <chr>               <chr>                 
#>  1 MMM    3M            Industrials   Industrial Conglom~ Saint Paul, Minnesota 
#>  2 AOS    A. O. Smith   Industrials   Building Products   Milwaukee, Wisconsin  
#>  3 ABT    Abbott        Health Care   Health Care Equipm~ North Chicago, Illino~
#>  4 ABBV   AbbVie        Health Care   Pharmaceuticals     North Chicago, Illino~
#>  5 ACN    Accenture     Information ~ IT Consulting & Ot~ Dublin, Ireland       
#>  6 ATVI   Activision B~ Communicatio~ Interactive Home E~ Santa Monica, Califor~
#>  7 ADM    ADM           Consumer Sta~ Agricultural Produ~ Chicago, Illinois     
#>  8 ADBE   Adobe Inc.    Information ~ Application Softwa~ San Jose, California  
#>  9 ADP    ADP           Industrials   Human Resource & E~ Roseland, New Jersey  
#> 10 AAP    Advance Auto~ Consumer Dis~ Automotive Retail   Raleigh, North Caroli~
#> # i 493 more rows
#> # i abbreviated name: 1: `Headquarters Location`
#> # i 3 more variables: `Date added` <chr>, CIK <int>, Founded <chr>
…
rating <- html %>% 
  html_nodes(css = ".imdbRating > strong") %>% 
  html_text() %>% 
  as.numeric()
num_ratings <- html %>% 
  html_nodes(css = ".imdbRating > strong") %>% 
  html_attr('title') %>% 
  # Extract the numbers and remove the comma to make it numeric values
  stringr::str_extract("(?<=based on ).*(?=\ user ratings)" ) %>% 
  stringr::str_replace_all(pattern = ",", replacement = "") %>% 
  as.numeric()
imdb_tbl <- tibble(rank, title, year, people, rating, num_ratings)
print(imdb_tbl)

#> # A tibble: 250 x 6
#>     rank title                                    year people rating num_ratings
#>    <dbl> <chr>                                   <dbl> <chr>   <dbl>       <dbl>
#>  1     1 Die Verurteilten                         1994 Frank~    9.2     2732526
#>  2     2 Der Pate                                 1972 Franc~    9.2     1899988
#>  3     3 The Dark Knight                          2008 Chris~    9       2705719
#>  4     4 Der Pate 2                               1974 Franc~    9       1295423
#>  5     5 Die zwölf Geschworenen                   1957 Sidne~    9        808554
#>  6     6 Schindlers Liste                         1993 Steve~    8.9     1379651
#>  7     7 Der Herr der Ringe: Die Rückkehr des K~  2003 Peter~    8.9     1879735
#>  8     8 Pulp Fiction                             1994 Quent~    8.8     2099767
#>  9     9 Der Herr der Ringe: Die Gefährten        2001 Peter~    8.8     1908686
#> 10    10 Zwei glorreiche Halunken                 1966 Sergi~    8.8      774414
#> # i 240 more rows
…
